{
    "realm" : "nodejs-example",
    "realm-public-key" : "MIGfMA0GCSqGSIb3DQEBAQUAA4GNADCBiQKBgQCrVrCuTtArbgaZzL1hvh0xtL5mc7o0NqPVnYXkLvgcwiC3BjLGw1tGEGoJaXDuSaRllobm53JBhjx33UNv+5z/UMG4kytBWxheNVKnL6GgqlNabMaFfPLPCF8kAgKnsi79NMo+n6KnSY8YeUmec/p2vjO2NjsSAVcWEQMVhJ31LwIDAQAB",
    "auth-server-url" : "http://localhost:8080/auth",
    "ssl-required" : "external",
    "resource" : "nodejs-connect",
    "public-client" : true
  }